"Ship name"," Arrival date"," Unloading date"," Days in queue"," Days in unloading"
"ship5","Fri Oct 02 10:00:00 MSK 2020","Fri Oct 02 09:00:00 MSK 2020","0","8"
"ship7","Sat Oct 10 09:00:00 MSK 2020","Mon Oct 19 09:00:00 MSK 2020","9","17"
"ship6","Wed Oct 07 09:00:00 MSK 2020","Sat Oct 10 09:00:00 MSK 2020","3","9"
"ship1","Tue Sep 29 10:00:00 MSK 2020","Tue Sep 29 09:00:00 MSK 2020","0","30"
"ship3","Sun Oct 04 09:00:00 MSK 2020","Sun Oct 04 09:00:00 MSK 2020","0","11"
"ship2","Sat Oct 03 10:00:00 MSK 2020","Sat Oct 03 09:00:00 MSK 2020","0","30"
"ship4","Tue Oct 13 09:00:00 MSK 2020","Thu Oct 15 09:00:00 MSK 2020","2","14"
"ship10","Sun Oct 18 09:00:00 MSK 2020","Thu Oct 22 09:00:00 MSK 2020","4","7"
"ship11","Tue Oct 06 09:00:00 MSK 2020","Thu Oct 08 09:00:00 MSK 2020","2","16"
"ship12","Tue Sep 29 09:00:00 MSK 2020","Tue Sep 29 09:00:00 MSK 2020","0","16"
"ship9","Thu Oct 08 09:00:00 MSK 2020","Thu Oct 15 09:00:00 MSK 2020","7","7"
"ship8","Sat Oct 03 10:00:00 MSK 2020","Sat Oct 03 09:00:00 MSK 2020","0","5"
